<svg width="649" height="734" viewBox="0 0 649 734" fill="none" xmlns="http://www.w3.org/2000/svg">
<path fill-rule="evenodd" clip-rule="evenodd" d="M611.817 715.299C625.584 712.657 627.725 710.515 630.367 696.748C633.009 710.515 635.151 712.657 648.918 715.299C635.151 717.941 633.009 720.082 630.367 733.85C627.725 720.082 625.584 717.941 611.817 715.299Z" fill="#FFC303"/>
<path fill-rule="evenodd" clip-rule="evenodd" d="M83.547 122.492C83.547 110.539 93.2367 100.849 105.19 100.849C117.142 100.849 126.832 110.539 126.832 122.492C126.832 134.445 117.142 144.135 105.19 144.135C93.2367 144.135 83.547 134.445 83.547 122.492Z" fill="#FC7300"/>
<path fill-rule="evenodd" clip-rule="evenodd" d="M1.09287 15.6849C1.09287 7.57428 7.66803 0.999112 15.779 0.999113C23.8897 0.999113 30.4648 7.57428 30.4648 15.6849C30.4648 23.7959 23.8897 30.3711 15.779 30.3711C7.66803 30.3711 1.09286 23.7959 1.09287 15.6849Z" stroke="#FC7300"/>
<path d="M352.879 129.304L373.648 108.535L352.879 87.766L332.11 108.535L352.879 129.304Z" fill="#3AB762"/>
<path d="M83.1228 662.506L106.078 639.551L83.1228 616.595L60.1674 639.551L83.1228 662.506Z" stroke="#FFC303"/>
</svg>
