<svg width="29" height="29" viewBox="0 0 29 29" fill="none" xmlns="http://www.w3.org/2000/svg">
<path d="M2 27L27.4558 1.54415" stroke="black" stroke-width="3" stroke-linecap="round"/>
<path d="M27 27L1.54416 1.54416" stroke="black" stroke-width="3" stroke-linecap="round"/>
</svg>
