<svg width="18" height="18" viewBox="0 0 18 18" fill="none" xmlns="http://www.w3.org/2000/svg">
<mask id="mask0_217_167" style="mask-type:alpha" maskUnits="userSpaceOnUse" x="0" y="0" width="18" height="18">
<rect width="18" height="18" fill="#D9D9D9"/>
</mask>
<g mask="url(#mask0_217_167)">
<path d="M6.01875 16.5L4.6875 15.1688L10.8563 9L4.6875 2.83125L6.01875 1.5L13.5188 9L6.01875 16.5Z" fill="white"/>
</g>
</svg>
