<svg width="421" height="415" viewBox="0 0 421 415" fill="none" xmlns="http://www.w3.org/2000/svg">
<path fill-rule="evenodd" clip-rule="evenodd" d="M1.09287 15.6849C1.09287 7.57428 7.66803 0.999112 15.779 0.999113C23.8897 0.999113 30.4648 7.57428 30.4648 15.6849C30.4648 23.7959 23.8897 30.3711 15.779 30.3711C7.66803 30.3711 1.09286 23.7959 1.09287 15.6849Z" stroke="#FC7300"/>
<path d="M73.7699 346.539L94.5391 325.77L73.7699 305L53.0008 325.77L73.7699 346.539Z" fill="#3AB762"/>
<path d="M396.955 413.91L419.91 390.955L396.955 368L373.999 390.955L396.955 413.91Z" stroke="#FFC303"/>
</svg>
