<svg width="20" height="20" viewBox="0 0 20 20" fill="none" xmlns="http://www.w3.org/2000/svg">
<path d="M9.6615 19.323C4.3356 19.323 0 14.9874 0 9.6615C0 4.33258 4.3356 0 9.6615 0C14.9874 0 19.323 4.3356 19.323 9.6615C19.323 14.9874 14.9904 19.323 9.6615 19.323Z" fill="black" fill-opacity="0.25098"/>
<path d="M9.6615 19.323C4.3356 19.323 0 14.9874 0 9.6615C0 4.33258 4.3356 0 9.6615 0C14.9874 0 19.323 4.3356 19.323 9.6615C19.323 14.9874 14.9904 19.323 9.6615 19.323Z" fill="#656E79"/>
<path d="M6.88477 5.75586L13.6418 9.65669L6.88477 13.5575V5.75586Z" fill="#20262E"/>
</svg>
